{
  "type": "loader",
  "name": "Geometry Loader",
  "asset_type": "geo",
  "host_type": "nuke",
  "ui_type": "qt",
  "contexts": [
    {
      "name": "main",
      "stages": [
        {
          "name": "context",
          "plugins":[
            {
              "name": "context selector",
              "plugin": "common_passthrough_loader_context",
              "widget": "common_default_loader_context"
            }
          ]
        }
      ]
    }
  ],
  "components": [
     {
      "name": "cache",
      "file_formats": [".abc"],
      "optional": true,
      "stages": [
        {
          "name": "collector",
          "plugins":[
            {
              "name": "Collect components from context",
              "plugin": "common_context_loader_collector"
            }
          ]
        },
        {
          "name": "importer",
          "plugins":[
            {
              "name": "Import paths to Nuke",
              "plugin": "nuke_geometry_loader_importer"
            }
          ]
        },
        {
          "name": "post_importer",
          "plugins":[
            {
              "name": "nuke",
              "plugin": "common_passthrough_loader_post_importer"
            }
          ]
        }
      ]
    },
    {
      "name": "game",
      "file_formats": [".fbx"],
      "optional": true,
      "stages": [
        {
          "name": "collector",
          "plugins":[
            {
              "name": "Collect components from context",
              "plugin": "common_context_loader_collector"
            }
          ]
        },
        {
          "name": "importer",
          "plugins":[
            {
              "name": "Import paths to Nuke",
              "plugin": "nuke_geometry_loader_importer"
            }
          ]
        },
        {
          "name": "post_importer",
          "plugins":[
            {
              "name": "nuke",
              "plugin": "common_passthrough_loader_post_importer"
            }
          ]
        }
      ]
    },
    {
      "name": "geo",
      "file_formats": [".obj"],
      "optional": true,
      "stages": [
        {
          "name": "collector",
          "plugins":[
            {
              "name": "Collect components from context",
              "plugin": "common_context_loader_collector"
            }
          ]
        },
        {
          "name": "importer",
          "plugins":[
            {
              "name": "Import paths to Nuke",
              "plugin": "nuke_geometry_loader_importer"
            }
          ]
        },
        {
          "name": "post_importer",
          "plugins":[
            {
              "name": "nuke",
              "plugin": "common_passthrough_loader_post_importer"
            }
          ]
        }
      ]
    }
  ],
  "finalizers": [
    {
      "name": "main",
      "stages": [
        {
          "name": "pre_finalizer",
          "visible": false,
          "plugins":[
            {
              "name": "Pre finalizer",
              "plugin": "common_passthrough_loader_pre_finalizer"
            }
          ]
        },
        {
          "name": "finalizer",
          "visible": false,
          "plugins":[
            {
              "name": "Finalizer",
              "plugin": "common_passthrough_loader_finalizer"
            }
          ]
        },
        {
          "name": "post_finalizer",
          "visible": false,
          "plugins":[
            {
              "name": "Post finalizer",
              "plugin": "common_passthrough_loader_post_finalizer"
            }
          ]
        }
      ]
    }
  ]
}